('C:\\Users\\ksaiz\\PycharmProjects\\product-availability\\dist\\product.exe',
 False,
 False,
 False,
 None,
 None,
 False,
 False,
 '<?xml version="1.0" encoding="UTF-8" standalone="yes"?><assembly manifestVersion="1.0" xmlns="urn:schemas-microsoft-com:asm.v1"><assemblyIdentity name="product" processorArchitecture="x86" type="win32" version="1.0.0.0"/><dependency><dependentAssembly><assemblyIdentity language="*" name="Microsoft.Windows.Common-Controls" processorArchitecture="*" publicKeyToken="6595b64144ccf1df" type="win32" version="6.0.0.0"/><compatibility xmlns="urn:schemas-microsoft-com:compatibility.v1"/></dependentAssembly></dependency><compatibility xmlns="urn:schemas-microsoft-com:compatibility.v1"><application><supportedOS Id="{e2011457-1546-43c5-a5fe-008deee3d3f0}"/><supportedOS Id="{35138b9a-5d96-4fbd-8e2d-a2440225f93a}"/><supportedOS Id="{4a2f28e3-53b9-4441-ba9c-d69d4a4a6e38}"/><supportedOS Id="{1f676c76-80e1-4239-95bb-83d0f6d0da78}"/><supportedOS Id="{8e0f7a12-bfb3-4fe8-b9a5-48fd50a15a9a}"/></application></compatibility></assembly>',
 True,
 'product.pkg',
 [('PYZ-00.pyz',
   'C:\\Users\\ksaiz\\PycharmProjects\\product-availability\\build\\product\\PYZ-00.pyz',
   'PYZ'),
  ('struct',
   'C:\\Users\\ksaiz\\AppData\\Local\\Programs\\Python\\Python36-32\\lib\\struct.pyo',
   'PYMODULE'),
  ('pyimod01_os_path',
   'C:\\Users\\ksaiz\\PycharmProjects\\KobS\\venv\\lib\\site-packages\\PyInstaller\\loader\\pyimod01_os_path.pyc',
   'PYMODULE'),
  ('pyimod02_archive',
   'C:\\Users\\ksaiz\\PycharmProjects\\KobS\\venv\\lib\\site-packages\\PyInstaller\\loader\\pyimod02_archive.pyc',
   'PYMODULE'),
  ('pyimod03_importers',
   'C:\\Users\\ksaiz\\PycharmProjects\\KobS\\venv\\lib\\site-packages\\PyInstaller\\loader\\pyimod03_importers.pyc',
   'PYMODULE'),
  ('pyiboot01_bootstrap',
   'C:\\Users\\ksaiz\\PycharmProjects\\KobS\\venv\\lib\\site-packages\\PyInstaller\\loader\\pyiboot01_bootstrap.py',
   'PYSOURCE'),
  ('pyi_rth_qt5',
   'C:\\Users\\ksaiz\\PycharmProjects\\KobS\\venv\\lib\\site-packages\\PyInstaller\\loader\\rthooks\\pyi_rth_qt5.py',
   'PYSOURCE'),
  ('product',
   'C:\\Users\\ksaiz\\PycharmProjects\\product-availability\\product.py',
   'PYSOURCE'),
  ('python36.dll',
   'C:\\Users\\ksaiz\\PycharmProjects\\KobS\\venv\\Scripts\\python36.dll',
   'BINARY'),
  ('VCRUNTIME140.dll',
   'C:\\Users\\ksaiz\\PycharmProjects\\KobS\\venv\\Scripts\\VCRUNTIME140.dll',
   'BINARY'),
  ('PyQt5\\Qt\\plugins\\platforms\\qoffscreen.dll',
   'C:\\Users\\ksaiz\\PycharmProjects\\KobS\\venv\\lib\\site-packages\\PyQt5\\Qt\\plugins\\platforms\\qoffscreen.dll',
   'BINARY'),
  ('PyQt5\\Qt\\plugins\\styles\\qwindowsvistastyle.dll',
   'C:\\Users\\ksaiz\\PycharmProjects\\KobS\\venv\\lib\\site-packages\\PyQt5\\Qt\\plugins\\styles\\qwindowsvistastyle.dll',
   'BINARY'),
  ('PyQt5\\Qt\\bin\\libGLESv2.dll',
   'C:\\Users\\ksaiz\\PycharmProjects\\KobS\\venv\\lib\\site-packages\\PyQt5\\Qt\\bin\\libGLESv2.dll',
   'BINARY'),
  ('PyQt5\\Qt\\bin\\libEGL.dll',
   'C:\\Users\\ksaiz\\PycharmProjects\\KobS\\venv\\lib\\site-packages\\PyQt5\\Qt\\bin\\libEGL.dll',
   'BINARY'),
  ('PyQt5\\Qt\\plugins\\imageformats\\qwebp.dll',
   'C:\\Users\\ksaiz\\PycharmProjects\\KobS\\venv\\lib\\site-packages\\PyQt5\\Qt\\plugins\\imageformats\\qwebp.dll',
   'BINARY'),
  ('PyQt5\\Qt\\plugins\\imageformats\\qwbmp.dll',
   'C:\\Users\\ksaiz\\PycharmProjects\\KobS\\venv\\lib\\site-packages\\PyQt5\\Qt\\plugins\\imageformats\\qwbmp.dll',
   'BINARY'),
  ('PyQt5\\Qt\\plugins\\platforms\\qwebgl.dll',
   'C:\\Users\\ksaiz\\PycharmProjects\\KobS\\venv\\lib\\site-packages\\PyQt5\\Qt\\plugins\\platforms\\qwebgl.dll',
   'BINARY'),
  ('PyQt5\\Qt\\plugins\\imageformats\\qjpeg.dll',
   'C:\\Users\\ksaiz\\PycharmProjects\\KobS\\venv\\lib\\site-packages\\PyQt5\\Qt\\plugins\\imageformats\\qjpeg.dll',
   'BINARY'),
  ('PyQt5\\Qt\\bin\\opengl32sw.dll',
   'C:\\Users\\ksaiz\\PycharmProjects\\KobS\\venv\\lib\\site-packages\\PyQt5\\Qt\\bin\\opengl32sw.dll',
   'BINARY'),
  ('PyQt5\\Qt\\plugins\\platforms\\qminimal.dll',
   'C:\\Users\\ksaiz\\PycharmProjects\\KobS\\venv\\lib\\site-packages\\PyQt5\\Qt\\plugins\\platforms\\qminimal.dll',
   'BINARY'),
  ('PyQt5\\Qt\\plugins\\imageformats\\qicns.dll',
   'C:\\Users\\ksaiz\\PycharmProjects\\KobS\\venv\\lib\\site-packages\\PyQt5\\Qt\\plugins\\imageformats\\qicns.dll',
   'BINARY'),
  ('PyQt5\\Qt\\plugins\\imageformats\\qtga.dll',
   'C:\\Users\\ksaiz\\PycharmProjects\\KobS\\venv\\lib\\site-packages\\PyQt5\\Qt\\plugins\\imageformats\\qtga.dll',
   'BINARY'),
  ('PyQt5\\Qt\\plugins\\iconengines\\qsvgicon.dll',
   'C:\\Users\\ksaiz\\PycharmProjects\\KobS\\venv\\lib\\site-packages\\PyQt5\\Qt\\plugins\\iconengines\\qsvgicon.dll',
   'BINARY'),
  ('PyQt5\\Qt\\plugins\\platformthemes\\qflatpak.dll',
   'C:\\Users\\ksaiz\\PycharmProjects\\KobS\\venv\\lib\\site-packages\\PyQt5\\Qt\\plugins\\platformthemes\\qflatpak.dll',
   'BINARY'),
  ('PyQt5\\Qt\\plugins\\imageformats\\qico.dll',
   'C:\\Users\\ksaiz\\PycharmProjects\\KobS\\venv\\lib\\site-packages\\PyQt5\\Qt\\plugins\\imageformats\\qico.dll',
   'BINARY'),
  ('PyQt5\\Qt\\plugins\\imageformats\\qgif.dll',
   'C:\\Users\\ksaiz\\PycharmProjects\\KobS\\venv\\lib\\site-packages\\PyQt5\\Qt\\plugins\\imageformats\\qgif.dll',
   'BINARY'),
  ('PyQt5\\Qt\\plugins\\imageformats\\qtiff.dll',
   'C:\\Users\\ksaiz\\PycharmProjects\\KobS\\venv\\lib\\site-packages\\PyQt5\\Qt\\plugins\\imageformats\\qtiff.dll',
   'BINARY'),
  ('PyQt5\\Qt\\bin\\d3dcompiler_47.dll',
   'C:\\Users\\ksaiz\\PycharmProjects\\KobS\\venv\\lib\\site-packages\\PyQt5\\Qt\\bin\\d3dcompiler_47.dll',
   'BINARY'),
  ('PyQt5\\Qt\\plugins\\platforms\\qwindows.dll',
   'C:\\Users\\ksaiz\\PycharmProjects\\KobS\\venv\\lib\\site-packages\\PyQt5\\Qt\\plugins\\platforms\\qwindows.dll',
   'BINARY'),
  ('PyQt5\\Qt\\plugins\\imageformats\\qsvg.dll',
   'C:\\Users\\ksaiz\\PycharmProjects\\KobS\\venv\\lib\\site-packages\\PyQt5\\Qt\\plugins\\imageformats\\qsvg.dll',
   'BINARY'),
  ('_ssl',
   'C:\\Users\\ksaiz\\PycharmProjects\\KobS\\venv\\Scripts\\_ssl.pyd',
   'EXTENSION'),
  ('unicodedata',
   'C:\\Users\\ksaiz\\PycharmProjects\\KobS\\venv\\Scripts\\unicodedata.pyd',
   'EXTENSION'),
  ('pyexpat',
   'C:\\Users\\ksaiz\\PycharmProjects\\KobS\\venv\\Scripts\\pyexpat.pyd',
   'EXTENSION'),
  ('_hashlib',
   'C:\\Users\\ksaiz\\PycharmProjects\\KobS\\venv\\Scripts\\_hashlib.pyd',
   'EXTENSION'),
  ('_bz2',
   'C:\\Users\\ksaiz\\PycharmProjects\\KobS\\venv\\Scripts\\_bz2.pyd',
   'EXTENSION'),
  ('_lzma',
   'C:\\Users\\ksaiz\\PycharmProjects\\KobS\\venv\\Scripts\\_lzma.pyd',
   'EXTENSION'),
  ('_socket',
   'C:\\Users\\ksaiz\\PycharmProjects\\KobS\\venv\\Scripts\\_socket.pyd',
   'EXTENSION'),
  ('select',
   'C:\\Users\\ksaiz\\PycharmProjects\\KobS\\venv\\Scripts\\select.pyd',
   'EXTENSION'),
  ('PyQt5.QtGui',
   'C:\\Users\\ksaiz\\PycharmProjects\\KobS\\venv\\lib\\site-packages\\PyQt5\\QtGui.pyd',
   'EXTENSION'),
  ('PyQt5.sip',
   'C:\\Users\\ksaiz\\PycharmProjects\\KobS\\venv\\lib\\site-packages\\PyQt5\\sip.pyd',
   'EXTENSION'),
  ('PyQt5.QtWidgets',
   'C:\\Users\\ksaiz\\PycharmProjects\\KobS\\venv\\lib\\site-packages\\PyQt5\\QtWidgets.pyd',
   'EXTENSION'),
  ('PyQt5.QtCore',
   'C:\\Users\\ksaiz\\PycharmProjects\\KobS\\venv\\lib\\site-packages\\PyQt5\\QtCore.pyd',
   'EXTENSION'),
  ('Qt5Gui.dll',
   'C:\\Users\\ksaiz\\PycharmProjects\\KobS\\venv\\lib\\site-packages\\PyQt5\\Qt\\bin\\qt5gui.dll',
   'BINARY'),
  ('Qt5Core.dll',
   'C:\\Users\\ksaiz\\PycharmProjects\\KobS\\venv\\lib\\site-packages\\PyQt5\\Qt\\bin\\qt5core.dll',
   'BINARY'),
  ('Qt5Widgets.dll',
   'C:\\Users\\ksaiz\\PycharmProjects\\KobS\\venv\\lib\\site-packages\\PyQt5\\Qt\\bin\\qt5widgets.dll',
   'BINARY'),
  ('MSVCP140.dll',
   'C:\\Users\\ksaiz\\PycharmProjects\\KobS\\venv\\lib\\site-packages\\PyQt5\\Qt\\bin\\MSVCP140.dll',
   'BINARY'),
  ('libGLESv2.dll',
   'C:\\Users\\ksaiz\\PycharmProjects\\KobS\\venv\\lib\\site-packages\\PyQt5\\Qt\\bin\\libGLESv2.dll',
   'BINARY'),
  ('Qt5WebSockets.dll',
   'C:\\Users\\ksaiz\\PycharmProjects\\KobS\\venv\\lib\\site-packages\\PyQt5\\Qt\\bin\\qt5websockets.dll',
   'BINARY'),
  ('Qt5Quick.dll',
   'C:\\Users\\ksaiz\\PycharmProjects\\KobS\\venv\\lib\\site-packages\\PyQt5\\Qt\\bin\\qt5quick.dll',
   'BINARY'),
  ('Qt5Network.dll',
   'C:\\Users\\ksaiz\\PycharmProjects\\KobS\\venv\\lib\\site-packages\\PyQt5\\Qt\\bin\\qt5network.dll',
   'BINARY'),
  ('Qt5Svg.dll',
   'C:\\Users\\ksaiz\\PycharmProjects\\KobS\\venv\\lib\\site-packages\\PyQt5\\Qt\\bin\\qt5svg.dll',
   'BINARY'),
  ('Qt5DBus.dll',
   'C:\\Users\\ksaiz\\PycharmProjects\\KobS\\venv\\lib\\site-packages\\PyQt5\\Qt\\bin\\qt5dbus.dll',
   'BINARY'),
  ('python3.dll',
   'C:\\Users\\ksaiz\\PycharmProjects\\KobS\\venv\\Scripts\\python3.dll',
   'BINARY'),
  ('Qt5Qml.dll',
   'C:\\Users\\ksaiz\\PycharmProjects\\KobS\\venv\\lib\\site-packages\\PyQt5\\Qt\\bin\\Qt5Qml.dll',
   'BINARY'),
  ('base_library.zip',
   'C:\\Users\\ksaiz\\PycharmProjects\\product-availability\\build\\product\\base_library.zip',
   'DATA'),
  ('PyQt5\\Qt\\translations\\qtbase_fi.qm',
   'C:\\Users\\ksaiz\\PycharmProjects\\KobS\\venv\\lib\\site-packages\\PyQt5\\Qt\\translations\\qtbase_fi.qm',
   'DATA'),
  ('PyQt5\\Qt\\translations\\qtbase_ja.qm',
   'C:\\Users\\ksaiz\\PycharmProjects\\KobS\\venv\\lib\\site-packages\\PyQt5\\Qt\\translations\\qtbase_ja.qm',
   'DATA'),
  ('PyQt5\\Qt\\translations\\qtbase_lv.qm',
   'C:\\Users\\ksaiz\\PycharmProjects\\KobS\\venv\\lib\\site-packages\\PyQt5\\Qt\\translations\\qtbase_lv.qm',
   'DATA'),
  ('PyQt5\\Qt\\translations\\qtbase_de.qm',
   'C:\\Users\\ksaiz\\PycharmProjects\\KobS\\venv\\lib\\site-packages\\PyQt5\\Qt\\translations\\qtbase_de.qm',
   'DATA'),
  ('PyQt5\\Qt\\translations\\qtbase_en.qm',
   'C:\\Users\\ksaiz\\PycharmProjects\\KobS\\venv\\lib\\site-packages\\PyQt5\\Qt\\translations\\qtbase_en.qm',
   'DATA'),
  ('PyQt5\\Qt\\translations\\qtbase_bg.qm',
   'C:\\Users\\ksaiz\\PycharmProjects\\KobS\\venv\\lib\\site-packages\\PyQt5\\Qt\\translations\\qtbase_bg.qm',
   'DATA'),
  ('PyQt5\\Qt\\translations\\qtbase_it.qm',
   'C:\\Users\\ksaiz\\PycharmProjects\\KobS\\venv\\lib\\site-packages\\PyQt5\\Qt\\translations\\qtbase_it.qm',
   'DATA'),
  ('PyQt5\\Qt\\translations\\qtbase_pl.qm',
   'C:\\Users\\ksaiz\\PycharmProjects\\KobS\\venv\\lib\\site-packages\\PyQt5\\Qt\\translations\\qtbase_pl.qm',
   'DATA'),
  ('PyQt5\\Qt\\translations\\qtbase_fr.qm',
   'C:\\Users\\ksaiz\\PycharmProjects\\KobS\\venv\\lib\\site-packages\\PyQt5\\Qt\\translations\\qtbase_fr.qm',
   'DATA'),
  ('PyQt5\\Qt\\translations\\qtbase_he.qm',
   'C:\\Users\\ksaiz\\PycharmProjects\\KobS\\venv\\lib\\site-packages\\PyQt5\\Qt\\translations\\qtbase_he.qm',
   'DATA'),
  ('PyQt5\\Qt\\translations\\qtbase_ar.qm',
   'C:\\Users\\ksaiz\\PycharmProjects\\KobS\\venv\\lib\\site-packages\\PyQt5\\Qt\\translations\\qtbase_ar.qm',
   'DATA'),
  ('PyQt5\\Qt\\translations\\qtbase_ru.qm',
   'C:\\Users\\ksaiz\\PycharmProjects\\KobS\\venv\\lib\\site-packages\\PyQt5\\Qt\\translations\\qtbase_ru.qm',
   'DATA'),
  ('PyQt5\\Qt\\translations\\qtbase_hu.qm',
   'C:\\Users\\ksaiz\\PycharmProjects\\KobS\\venv\\lib\\site-packages\\PyQt5\\Qt\\translations\\qtbase_hu.qm',
   'DATA'),
  ('PyQt5\\Qt\\translations\\qtbase_ko.qm',
   'C:\\Users\\ksaiz\\PycharmProjects\\KobS\\venv\\lib\\site-packages\\PyQt5\\Qt\\translations\\qtbase_ko.qm',
   'DATA'),
  ('PyQt5\\Qt\\translations\\qtbase_ca.qm',
   'C:\\Users\\ksaiz\\PycharmProjects\\KobS\\venv\\lib\\site-packages\\PyQt5\\Qt\\translations\\qtbase_ca.qm',
   'DATA'),
  ('PyQt5\\Qt\\translations\\qtbase_sk.qm',
   'C:\\Users\\ksaiz\\PycharmProjects\\KobS\\venv\\lib\\site-packages\\PyQt5\\Qt\\translations\\qtbase_sk.qm',
   'DATA'),
  ('PyQt5\\Qt\\translations\\qtbase_da.qm',
   'C:\\Users\\ksaiz\\PycharmProjects\\KobS\\venv\\lib\\site-packages\\PyQt5\\Qt\\translations\\qtbase_da.qm',
   'DATA'),
  ('PyQt5\\Qt\\translations\\qtbase_cs.qm',
   'C:\\Users\\ksaiz\\PycharmProjects\\KobS\\venv\\lib\\site-packages\\PyQt5\\Qt\\translations\\qtbase_cs.qm',
   'DATA'),
  ('PyQt5\\Qt\\translations\\qtbase_uk.qm',
   'C:\\Users\\ksaiz\\PycharmProjects\\KobS\\venv\\lib\\site-packages\\PyQt5\\Qt\\translations\\qtbase_uk.qm',
   'DATA'),
  ('PyQt5\\Qt\\translations\\qtbase_gd.qm',
   'C:\\Users\\ksaiz\\PycharmProjects\\KobS\\venv\\lib\\site-packages\\PyQt5\\Qt\\translations\\qtbase_gd.qm',
   'DATA'),
  ('PyQt5\\Qt\\translations\\qtbase_es.qm',
   'C:\\Users\\ksaiz\\PycharmProjects\\KobS\\venv\\lib\\site-packages\\PyQt5\\Qt\\translations\\qtbase_es.qm',
   'DATA'),
  ('product.exe.manifest',
   'C:\\Users\\ksaiz\\PycharmProjects\\product-availability\\build\\product\\product.exe.manifest',
   'BINARY'),
  ('pyi-windows-manifest-filename product.exe.manifest', '', 'OPTION')],
 [],
 False,
 False,
 1544809310,
 [('runw.exe',
   'C:\\Users\\ksaiz\\PycharmProjects\\KobS\\venv\\lib\\site-packages\\PyInstaller\\bootloader\\Windows-32bit\\runw.exe',
   'EXECUTABLE')])
